{
  "name": "3d_rotation",
  "do": "",
  "dont": "",
  "tags": [
    "symbol",
    "D",
    "arrow",
    "rotation",
    "arrows",
    "alphabet",
    "type",
    "3d",
    "number",
    "character",
    "av",
    "letter",
    "text",
    "camera",
    "vr",
    "digit",
    "font"
  ],
  "category": [
    "action"
  ],
  "type": "static"
}