{
  "name": "accessibility",
  "do": "",
  "dont": "",
  "tags": [
    "accessible",
    "help",
    "accessibility",
    "handicap",
    "person",
    "body",
    "human"
  ],
  "category": [
    "action"
  ],
  "type": "static"
}