{
  "name": "add_circle",
  "do": "",
  "dont": "",
  "tags": [
    "add",
    "new",
    "create",
    "box",
    "+",
    "circle",
    "plus"
  ],
  "category": [
    "content"
  ],
  "type": "static"
}