{
  "name": "airplanemode_active",
  "do": "",
  "dont": "",
  "tags": [
    "mode",
    "airplanemode",
    "flight",
    "airplane",
    "active",
    "signal",
    "on"
  ],
  "category": [
    "device"
  ],
  "type": "static"
}