{
  "name": "assignment",
  "do": "",
  "dont": "",
  "tags": [
    "assignment",
    "document",
    "writing",
    "doc",
    "text",
    "clipboard",
    "article"
  ],
  "category": [
    "action"
  ],
  "type": "static"
}