{
  "name": "battery_alert",
  "do": "",
  "dont": "",
  "tags": [
    "!",
    "charge",
    "alert",
    "Battery",
    "mobile",
    "exclamation",
    "power",
    "cell",
    "error"
  ],
  "category": [
    "device"
  ],
  "type": "static"
}