{
  "name": "bluetooth_disabled",
  "do": "",
  "dont": "",
  "tags": [
    "symbol",
    "bluetooth",
    "connection",
    "disabled",
    "paring",
    "slash",
    "device",
    "enabled",
    "off",
    "on"
  ],
  "category": [
    "device"
  ],
  "type": "static"
}