{
  "name": "bluetooth_searching",
  "do": "",
  "dont": "",
  "tags": [
    "symbol",
    "search",
    "bluetooth",
    "searching",
    "connection",
    "paring",
    "device"
  ],
  "category": [
    "device"
  ],
  "type": "static"
}