{
  "name": "camera_enhance",
  "do": "",
  "dont": "",
  "tags": [
    "photo",
    "camera",
    "lens",
    "picture",
    "enhance",
    "quality"
  ],
  "category": [
    "action"
  ],
  "type": "static"
}