{
  "name": "contact_mail",
  "do": "",
  "dont": "",
  "tags": [
    "face",
    "address",
    "mail",
    "person",
    "profile",
    "information",
    "human",
    "people",
    "user",
    "account",
    "Contact",
    "info"
  ],
  "category": [
    "communication"
  ],
  "type": "static"
}