{
  "name": "devices",
  "do": "",
  "dont": "",
  "tags": [
    "wearable",
    "OS",
    "mobile",
    "monitor",
    "iOS",
    "laptop",
    "Android",
    "tablet",
    "computer",
    "desktop",
    "phone",
    "watch",
    "web",
    "device",
    "hardware"
  ],
  "category": [
    "device"
  ],
  "type": "static"
}