{
  "name": "directions",
  "do": "",
  "dont": "",
  "tags": [
    "route",
    "maps",
    "arrow",
    "sign",
    "right",
    "direction",
    "traffic"
  ],
  "category": [
    "maps"
  ],
  "type": "static"
}