{
  "name": "event_note",
  "do": "",
  "dont": "",
  "tags": [
    "calendar",
    "appointment",
    "date",
    "notice",
    "observation"
  ],
  "category": [
    "notification"
  ],
  "type": "static"
}