{
  "name": "fast_forward",
  "do": "",
  "dont": "",
  "tags": [
    "music",
    "forward",
    "control",
    "time",
    "video",
    "Fast",
    "speed"
  ],
  "category": [
    "av"
  ],
  "type": "static"
}