{
  "name": "flag",
  "do": "",
  "dont": "",
  "tags": [
    "country",
    "flag",
    "goal",
    "nation",
    "report",
    "start",
    "mark"
  ],
  "category": [
    "content"
  ],
  "type": "static"
}