{
  "name": "format_list_numbered",
  "do": "",
  "dont": "",
  "tags": [
    "editor",
    "symbol",
    "edit",
    "align",
    "list",
    "type",
    "editing",
    "number",
    "writing",
    "doc",
    "sheet",
    "text",
    "alignment",
    "digit",
    "speadsheet"
  ],
  "category": [
    "editor"
  ],
  "type": "static"
}