{
  "name": "format_color_reset",
  "do": "",
  "dont": "",
  "tags": [
    "editor",
    "color",
    "edit",
    "clear",
    "paint",
    "fill",
    "type",
    "enabled",
    "off",
    "editing",
    "writing",
    "doc",
    "reset",
    "disabled",
    "sheet",
    "slash",
    "style",
    "text",
    "on",
    "speadsheet"
  ],
  "category": [
    "editor"
  ],
  "type": "static"
}