{
  "name": "forward_10",
  "do": "",
  "dont": "",
  "tags": [
    "number",
    "symbol",
    "controls",
    "music",
    "arrow",
    "forward",
    "arrows",
    "control",
    "video",
    "Fast",
    "10",
    "digit"
  ],
  "category": [
    "av"
  ],
  "type": "static"
}