{
  "name": "graphic_eq",
  "do": "",
  "dont": "",
  "tags": [
    "voice",
    "music",
    "equalizer",
    "sound",
    "recording",
    "audio",
    "graphic"
  ],
  "category": [
    "device"
  ],
  "type": "static"
}