{
  "name": "group_work",
  "do": "",
  "dont": "",
  "tags": [
    "partnership",
    "alliance",
    "teamwork",
    "collaboration",
    "work",
    "together",
    "group"
  ],
  "category": [
    "action"
  ],
  "type": "static"
}