{
  "name": "keyboard_hide",
  "do": "",
  "dont": "",
  "tags": [
    "writing", "words", "type", "key", "letter", "words", "disable", "disappear"
  ],
  "category": [
    "hardware"
  ],
  "type": "static"
}