{
  "name": "local_parking",
  "do": "",
  "dont": "",
  "tags": [
    "parking",
    "symbol",
    "auto",
    "character",
    "car",
    "letter",
    "alphabet",
    "text",
    "type",
    "park",
    "font",
    "vehicle"
  ],
  "category": [
    "maps"
  ],
  "type": "static"
}