{
  "name": "local_cafe",
  "do": "",
  "dont": "",
  "tags": [
    "tea",
    "cafe",
    "coffee",
    "restaurant",
    "bottle",
    "drink",
    "food",
    "cup"
  ],
  "category": [
    "maps"
  ],
  "type": "static"
}