{
  "name": "location_on",
  "do": "",
  "dont": "",
  "tags": [
    "maps",
    "pin",
    "stop",
    "destination",
    "disabled",
    "location",
    "slash",
    "place",
    "enabled",
    "off",
    "direction",
    "on"
  ],
  "category": [
    "communication"
  ],
  "type": "static"
}