{
  "name": "local_offer",
  "do": "",
  "dont": "",
  "tags": [
    "offer",
    "deal",
    "shop",
    "price",
    "discount",
    "store.",
    "tag",
    "shopping"
  ],
  "category": [
    "maps"
  ],
  "type": "static"
}