{
  "name": "perm_phone_msg",
  "do": "",
  "dont": "",
  "tags": [
    "voice",
    "bubble",
    "phone",
    "speech",
    "chat",
    "save",
    "recording",
    "message"
  ],
  "category": [
    "action"
  ],
  "type": "static"
}