{
  "name": "radio",
  "do": "",
  "dont": "",
  "tags": [
    "antenna",
    "music",
    "Radio",
    "device",
    "listen",
    "tune",
    "player"
  ],
  "category": [
    "av"
  ],
  "type": "static"
}