{
  "name": "receipt",
  "do": "",
  "dont": "",
  "tags": [
    "sale",
    "paper",
    "bill",
    "payment",
    "receipt",
    "invoice",
    "credit"
  ],
  "category": [
    "action"
  ],
  "type": "static"
}