{
  "name": "repeat_one",
  "do": "",
  "dont": "",
  "tags": [
    "1",
    "number",
    "symbol",
    "controls",
    "music",
    "arrow",
    "arrows",
    "Repeat",
    "control",
    "video",
    "digit"
  ],
  "category": [
    "av"
  ],
  "type": "static"
}