{
  "name": "repeat",
  "do": "",
  "dont": "",
  "tags": [
    "controls",
    "music",
    "arrow",
    "arrows",
    "Repeat",
    "control",
    "video"
  ],
  "category": [
    "av"
  ],
  "type": "static"
}