{
  "name": "report",
  "do": "",
  "dont": "",
  "tags": [
    "!",
    "notification",
    "symbol",
    "alert",
    "octagon",
    "attention",
    "warning",
    "exclamation",
    "danger",
    "error",
    "caution",
    "mark"
  ],
  "category": [
    "content"
  ],
  "type": "static"
}