{
  "name": "room",
  "do": "",
  "dont": "",
  "tags": [
    "pin",
    "marker",
    "spot",
    "place",
    "map",
    "mark",
    "room"
  ],
  "category": [
    "action"
  ],
  "type": "static"
}