{
  "name": "search",
  "do": "",
  "dont": "",
  "tags": [
    "filter",
    "cearch",
    "look up",
    "magnifying glass",
    "look",
    "magnify"
  ],
  "category": [
    "action"
  ],
  "type": "static"
}