{
  "name": "sentiment_very_dissatisfied",
  "do": "",
  "dont": "",
  "tags": [
    "unhappy", "emoji", "feedback", "angry", "disappointed"
  ],
  "category": [
    "social"
  ],
  "type": "static"
}