{
  "name": "settings_voice",
  "do": "",
  "dont": "",
  "tags": [
    "voice",
    "settings",
    "recorder",
    "mic",
    "record",
    "speaker",
    "microphone"
  ],
  "category": [
    "action"
  ],
  "type": "static"
}