{
  "name": "signal_wifi_2_bar_lock",
  "do": "",
  "dont": "",
  "tags": [
    "wifi",
    "celluar",
    "data",
    "phone",
    "mobile",
    "lock",
    "wireless",
    "cell",
    "signal",
    "internet",
    "speed",
    "network"
  ],
  "category": [
    "device"
  ],
  "type": "static"
}