{
  "name": "stay_current_landscape",
  "do": "",
  "dont": "",
  "tags": [
    "tablet",
    "current",
    "Landscape",
    "OS",
    "phone",
    "mobile",
    "iOS",
    "device",
    "Android",
    "hardware",
    "stay"
  ],
  "category": [
    "communication"
  ],
  "type": "static"
}