{
  "name": "supervisor_account",
  "do": "",
  "dont": "",
  "tags": [
    "profile",
    "control",
    "avatar",
    "people",
    "face",
    "supervised",
    "person",
    "human",
    "parental control",
    "user",
    "account",
    "parental",
    "supervisor",
    "parents"
  ],
  "category": [
    "action"
  ],
  "type": "static"
}