{
  "name": "touch_app",
  "do": "",
  "dont": "",
  "tags": [
    "hands",
    "arrow",
    "swipe",
    "touch",
    "fingers",
    "apps",
    "gesture",
    "hand"
  ],
  "category": [
    "action"
  ],
  "type": "static"
}