{
  "name": "vertical_align_top",
  "do": "",
  "dont": "",
  "tags": [
    "editor",
    "arrow",
    "edit",
    "align",
    "type",
    "editing",
    "top",
    "writing",
    "doc",
    "sheet",
    "text",
    "up",
    "alignment",
    "speadsheet"
  ],
  "category": [
    "editor"
  ],
  "type": "static"
}