{
  "name": "wifi_tethering",
  "do": "",
  "dont": "",
  "tags": [
    "wifi",
    "celluar",
    "data",
    "phone",
    "mobile",
    "thethering",
    "wireless",
    "cell",
    "internet",
    "speed",
    "network"
  ],
  "category": [
    "device"
  ],
  "type": "static"
}