{
  "name": "activate_subscriptions",
  "do": "<ul><li>For subscription activations.</li></ul>",
  "dont": "<ul><li>To show activated subscriptions. Use product_subscriptions instead.</li></ul>",
  "tags": [
    "registration codes",
    "reg codes"
  ],
  "category": "services",
  "type": "static"
}
