{
  "name": "container",
  "do": "<ul><li>use it for container</li></ul>",
  "dont": "",
  "tags": [
    "container",
    "doker",
    "kubernetes"
  ],
  "category": "virtualization",
  "type": "static"
}
