{
  "name": "ip",
  "do": "<ul><li>Use it when listing or remarking an Internet Protocol address.</li></ul>",
  "dont": "<ul><li>Don't use it for network, route, http, or others.</li></ul>",
  "tags": [
    "internet",
    "protocol",
    "address",
    "numericallabel"
  ],
  "category": "virtualization",
  "type": "static"
}