{
  "name": "modified_date",
  "do": "<ul><li>To represent a date that has been modified.</li></ul>",
  "dont": "<ul><li>To represent any other type of editing that is not date.</li></ul>",
  "tags": [
    "modified",
    "date"
  ],
  "category": "action",
  "type": "static"
}
