{
  "name": "multistate",
  "do": "<ul><li>To show multiple states.</li></ul>",
  "dont": "",
  "tags": [
    "multistate",
    "multistate resources"
  ],
  "category": "virtualization",
  "type": "static"
}
