{
  "name": "network",
  "do": "<ul><li>To represent interconnectivity between cloud based applications or services</li></ul>",
  "dont": "<ul><li>To represent location or language</li></ul>",
  "tags": [
    "network",
    "servers",
    "cloud",
    "share",
    "kubernetes",
    "containers"
  ],
  "category": "virtualization",
  "type": "static"
}
