{
  "name": "patterns",
  "do": "<ul> <li> To represent predictable behaivor </li> </ul",
  "dont": "<ul> <li> To represent routes </li> </ul>",
  "tags": [
    "patterns",
    "information"
  ],
  "category": "design",
  "type": "static"
}
