{
  "name": "product_classes",
  "do": "<ul><li>To represent product classes.</li></ul>",
  "dont": "",
  "tags": [
    "subscription",
    "SCC",
    "collection"
  ],
  "category": "services",
  "type": "static"
}
